{
  "images" : [
    {
      "idiom" : "universal",
      "filename" : "23621608_10211982337366909_4599804562019806360_n.jpg",
      "scale" : "1x"
    },
    {
      "idiom" : "universal",
      "scale" : "2x"
    },
    {
      "idiom" : "universal",
      "scale" : "3x"
    }
  ],
  "info" : {
    "version" : 1,
    "author" : "xcode"
  }
}